0	13.9
86400	9.81
172800	6.58
259200	5.15
345600	4.15
432000	3.39
518400	2.98
604800	2.84
691200	2.7
777600	2.58
864000	2.41
950400	2.31
1036800	2.19
1123200	2.06
1209600	1.91
1296000	1.7
1382400	1.63
1468800	1.4
1555200	1.76
1641600	1.49
1728000	1.2
1814400	0.901
1900800	0.761
1987200	0.634
2073600	0.542
2160000	0.433
2246400	0.409
2332800	0.343
2419200	0.279
2505600	0.322
2592000	0.336
2678400	0.376
2764800	0.34
2851200	0.269
2937600	0.215
3024000	0.166
3110400	0.172
3196800	0.165
3283200	0.154
3369600	0.139
3456000	0.135
3542400	0.127
3628800	0.115
3715200	0.333
3801600	1.48
3888000	1.23
3974400	0.625
4060800	0.321
4147200	0.207
4233600	0.189
4320000	0.188
4406400	0.183
4492800	0.206
4579200	0.184
4665600	0.157
4752000	0.145
4838400	0.14
4924800	0.14
5011200	0.144
5097600	0.14
5184000	0.14
5270400	0.14
5356800	0.14
5443200	0.14
5529600	0.145
5616000	0.148
5702400	0.148
5788800	0.148
5875200	0.143
5961600	0.14
6048000	0.144
6134400	0.149
6220800	0.198
6307200	0.162
6393600	0.2
6480000	0.23
6566400	0.313
6652800	2.17
6739200	2.91
6825600	2.91
6912000	2.4
6998400	2.71
7084800	2.87
7171200	6.28
7257600	14.9
7344000	26.3
7430400	28.5
7516800	24
7603200	19
7689600	14.9
7776000	13.1
7862400	9.94
7948800	6.65
8035200	5.38
8121600	4.77
8208000	4.37
8294400	4.07
8380800	3.39
8467200	18.4
8553600	32.4
8640000	28.8
8726400	22.6
8812800	16.6
8899200	13.8
8985600	13.5
9072000	13.7
9158400	19.4
9244800	16.5
9331200	12.7
9417600	15.5
9504000	20
9590400	15.3
9676800	11.3
9763200	8.36
9849600	16
9936000	26.6
10022400	21.2
10108800	15.8
10195200	12.4
10281600	9.79
10368000	7.44
10454400	6.07
10540800	5.26
10627200	4.63
10713600	4.8
10800000	8.48
10886400	5.82
10972800	4.65
11059200	4.33
11145600	5.74
11232000	13.5
11318400	11.3
11404800	7.22
11491200	5.1
11577600	5.8
11664000	5.6
11750400	4.54
11836800	14.5
11923200	20.8
12009600	15.4
12096000	10.3
12182400	5.91
12268800	4.54
12355200	3.52
12441600	2.81
12528000	2.59
12614400	2.43
12700800	2.26
12787200	2.08
12873600	1.81
12960000	1.7
13046400	1.66
13132800	1.47
13219200	1.28
13305600	0.938
13392000	1.16
13478400	2.35
13564800	2.31
13651200	2.16
13737600	1.89
13824000	1.62
13910400	1.22
13996800	0.864
14083200	0.624
14169600	0.453
14256000	0.34
14342400	0.248
14428800	0.242
14515200	0.26
14601600	0.289
14688000	0.248
14774400	0.214
14860800	0.184
14947200	0.157
15033600	0.242
15120000	0.303
15206400	0.272
15292800	0.535
15379200	0.4
15465600	0.296
15552000	0.305
15638400	1.17
15724800	4.8
15811200	2.9
15897600	2.17
15984000	2.07
16070400	7.43
16156800	4.04
16243200	2.65
16329600	2.52
16416000	2.61
16502400	2.47
16588800	2.32
16675200	2.04
16761600	1.62
16848000	1.11
16934400	0.681
17020800	0.597
17107200	0.437
17193600	0.423
17280000	0.305
17366400	0.265
17452800	0.362
17539200	0.346
17625600	0.295
17712000	0.275
17798400	0.227
17884800	0.213
17971200	0.173
18057600	0.145
18144000	0.151
18230400	0.145
18316800	0.151
18403200	0.121
18489600	0.081
18576000	0.065
18662400	0.078
18748800	0.085
18835200	0.363
18921600	2.94
19008000	2.66
19094400	1.7
19180800	2.29
19267200	14.4
19353600	6.36
19440000	3.32
19526400	5.55
19612800	5.23
19699200	3.25
19785600	2.6
19872000	2.22
19958400	1.92
20044800	1.89
20131200	4.79
20217600	8.07
20304000	5.5
20390400	5.08
20476800	4.2
20563200	3.55
20649600	3.07
20736000	2.97
20822400	2.65
20908800	2.3
20995200	2.03
21081600	0.605
21168000	0.094
21254400	0.084
21340800	0.085
21427200	0.068
21513600	0.066
21600000	0.064
21686400	0.07
21772800	9.35
21859200	11.5
21945600	5.14
22032000	2.63
22118400	3.09
22204800	2.14
22291200	1.56
22377600	11.9
22464000	31.4
22550400	25.4
22636800	19.8
22723200	13.3
22809600	8.69
22896000	5.46
22982400	4.02
23068800	2.77
23155200	2.04
23241600	1.44
23328000	1.18
23414400	1.43
23500800	15.7
23587200	10.8
23673600	5.22
23760000	3.28
23846400	6.67
23932800	11.3
24019200	13.2
24105600	14.8
24192000	14.3
24278400	11
24364800	7.06
24451200	4.66
24537600	3.46
24624000	2.69
24710400	2.06
24796800	1.52
24883200	1.23
24969600	3.71
25056000	4.98
25142400	4.35
25228800	2.4
25315200	1.67
25401600	6.67
25488000	8.18
25574400	6.1
25660800	4.6
25747200	3.6
25833600	3.4
25920000	3.46
26006400	3.16
26092800	2.93
26179200	2.7
26265600	2.44
26352000	2.32
26438400	2.13
26524800	2
26611200	1.86
26697600	1.86
26784000	1.91
26870400	2.66
26956800	2.66
27043200	2.5
27129600	2.15
27216000	2.02
27302400	2.07
27388800	2.04
27475200	1.99
27561600	1.99
27648000	2.05
27734400	2.14
27820800	1.94
27907200	1.71
27993600	1.35
28080000	1.11
28166400	1.14
28252800	1.84
28339200	1.95
28425600	29.7
28512000	38.1
28598400	32.6
28684800	27.2
28771200	28.3
28857600	20.4
28944000	14
29030400	28.2
29116800	37.6
29203200	46.4
29289600	41.8
29376000	35.1
29462400	28.2
29548800	22
29635200	15.6
29721600	11.8
29808000	8.65
29894400	6.59
29980800	5.69
30067200	4.98
30153600	4.43
30240000	4.04
30326400	3.53
30412800	3.32
30499200	3.15
30585600	2.97
30672000	2.82
30758400	2.64
30844800	2.5
30931200	2.41
31017600	2.37
31104000	2.38
31190400	2.43
31276800	2.39
31363200	2.22
31449600	2.16



